# Blender v2.79 (sub 0) OBJ File: 'well.coveredopen.blend'
# www.blender.org
mtllib well_coveredopen.mtl
o well.covered
v -0.906935 2.346101 -0.032752
v -0.906935 2.301361 -0.044740
v -0.906935 2.268610 -0.011988
v -0.906935 2.280597 0.032752
v -0.906935 2.325337 0.044740
v -0.906935 2.358089 0.011988
v -1.012613 2.346101 -0.032752
v -1.012613 2.301361 -0.044740
v -1.012613 2.268610 -0.011988
v -1.012613 2.280597 0.032752
v -1.012613 2.325337 0.044740
v -1.012613 2.358089 0.011988
v 0.910070 2.529427 -0.215755
v 0.910070 2.392643 -0.294727
v 0.910070 2.234699 -0.294727
v 0.910070 2.097916 -0.215755
v 0.910070 2.018944 -0.078972
v 0.910070 2.018944 0.078972
v 0.910070 2.097916 0.215756
v 0.910070 2.234699 0.294728
v 0.910070 2.392643 0.294728
v 0.910070 2.529427 0.215756
v 0.910070 2.608399 0.078972
v 0.910070 2.608399 -0.078972
v 0.957126 2.529427 -0.215755
v 0.957126 2.392643 -0.294727
v 0.957126 2.234699 -0.294727
v 0.957126 2.097916 -0.215755
v 0.957126 2.018944 -0.078972
v 0.957126 2.018944 0.078972
v 0.957126 2.097916 0.215756
v 0.957126 2.234699 0.294728
v 0.957126 2.392643 0.294728
v 0.957126 2.529427 0.215756
v 0.957126 2.608399 0.078972
v 0.957126 2.608399 -0.078972
v 0.958430 2.088129 -0.017409
v 0.958430 2.064348 -0.023781
v 0.958430 2.046939 -0.006372
v 0.958430 2.053311 0.017409
v 0.958430 2.077092 0.023781
v 0.958430 2.094501 0.006372
v 1.091604 2.088129 -0.017409
v 1.091604 2.064348 -0.023781
v 1.091604 2.046939 -0.006372
v 1.091604 2.053311 0.017409
v 1.091604 2.077092 0.023781
v 1.091604 2.094501 0.006372
v 1.095608 2.092220 -0.021500
v 1.095608 2.062850 -0.029370
v 1.095608 2.041349 -0.007869
v 1.095608 2.049219 0.021501
v 1.095608 2.078589 0.029371
v 1.095608 2.100090 0.007870
v 1.123188 2.062850 -0.029370
v 1.123188 2.092220 -0.021500
v 1.123188 2.041349 -0.007869
v 1.123188 2.049219 0.021501
v 1.123188 2.078589 0.029371
v 1.123188 2.100090 0.007870
v 0.763129 2.346423 -0.032752
v 0.763129 2.301684 -0.044740
v 0.763129 2.268932 -0.011988
v 0.763129 2.280920 0.032752
v 0.763129 2.325660 0.044740
v 0.763129 2.358411 0.011988
v -0.765289 2.346423 -0.032752
v -0.765289 2.301684 -0.044740
v -0.765289 2.268932 -0.011988
v -0.765289 2.280920 0.032752
v -0.765289 2.325660 0.044740
v -0.765289 2.358411 0.011988
v 0.475439 0.000000 -0.732112
v 0.719416 0.000000 -0.494441
v 0.853868 0.000000 -0.181495
v 0.858326 0.000000 0.159081
v 0.732112 0.000000 0.475439
v 0.494441 0.000000 0.719415
v 0.181495 0.000000 0.853868
v -0.159081 0.000000 0.858326
v -0.475439 0.000000 0.732112
v -0.719415 0.000000 0.494441
v -0.853867 0.000000 0.181495
v -0.858326 0.000000 -0.159081
v -0.732112 0.000000 -0.475439
v -0.494440 0.000000 -0.719416
v -0.181495 0.000000 -0.853868
v 0.159082 0.000000 -0.858326
v 0.475439 1.000000 -0.732112
v 0.719416 1.000000 -0.494441
v 0.853868 1.000000 -0.181495
v 0.858326 1.000000 0.159081
v 0.732112 1.000000 0.475439
v 0.494441 1.000000 0.719415
v 0.181495 1.000000 0.853868
v -0.159081 1.000000 0.858326
v -0.475439 1.000000 0.732112
v -0.719415 1.000000 0.494441
v -0.853867 1.000000 0.181495
v -0.858326 1.000000 -0.159081
v -0.732112 1.000000 -0.475439
v -0.494440 1.000000 -0.719416
v -0.181495 1.000000 -0.853868
v 0.159082 1.000000 -0.858326
v 0.580444 0.009845 -0.398928
v 0.383597 0.009845 -0.590688
v 0.688924 0.009845 -0.146435
v 0.692521 0.009845 0.128351
v 0.590688 0.009845 0.383597
v 0.398928 0.009845 0.580444
v 0.146435 0.009845 0.688924
v -0.128351 0.009845 0.692521
v -0.383597 0.009845 0.590688
v -0.580444 0.009845 0.398928
v -0.688924 0.009845 0.146435
v -0.692521 0.009845 -0.128351
v -0.590688 0.009845 -0.383597
v -0.398928 0.009845 -0.580444
v -0.146435 0.009845 -0.688924
v 0.128352 0.009845 -0.692521
v 0.383597 0.997015 -0.590688
v 0.580444 0.997015 -0.398928
v 0.688924 0.997015 -0.146435
v 0.692521 0.997015 0.128351
v 0.590688 0.997015 0.383597
v 0.398928 0.997015 0.580444
v 0.146435 0.997015 0.688924
v -0.128351 0.997015 0.692521
v -0.383597 0.997015 0.590688
v -0.580444 0.997015 0.398928
v -0.688924 0.997015 0.146435
v -0.692521 0.997015 -0.128351
v -0.590688 0.997015 -0.383597
v -0.398928 0.997015 -0.580444
v -0.146435 0.997015 -0.688924
v 0.128352 0.997015 -0.692521
v 0.128352 0.997015 -0.692521
v -0.146435 0.997015 -0.688924
v -0.398928 0.997015 -0.580444
v -0.590688 0.997015 -0.383597
v -0.692521 0.997015 -0.128351
v -0.688924 0.997015 0.146435
v -0.580444 0.997015 0.398928
v -0.383597 0.997015 0.590688
v -0.128351 0.997015 0.692521
v 0.146435 0.997015 0.688924
v 0.398928 0.997015 0.580444
v 0.590688 0.997015 0.383597
v 0.692521 0.997015 0.128351
v 0.688924 0.997015 -0.146435
v 0.580444 0.997015 -0.398928
v 0.383597 0.997015 -0.590688
v 0.128352 0.009845 -0.692521
v -0.146435 0.009845 -0.688924
v -0.398928 0.009845 -0.580444
v -0.590688 0.009845 -0.383597
v -0.692521 0.009845 -0.128351
v -0.688924 0.009845 0.146435
v -0.580444 0.009845 0.398928
v -0.383597 0.009845 0.590688
v -0.128351 0.009845 0.692521
v 0.146435 0.009845 0.688924
v 0.398928 0.009845 0.580444
v 0.590688 0.009845 0.383597
v 0.692521 0.009845 0.128351
v 0.688924 0.009845 -0.146435
v 0.383597 0.009845 -0.590688
v 0.580444 0.009845 -0.398928
v 0.159082 1.000000 -0.858326
v -0.181495 1.000000 -0.853868
v -0.494440 1.000000 -0.719416
v -0.732112 1.000000 -0.475439
v -0.858326 1.000000 -0.159081
v -0.853867 1.000000 0.181495
v -0.719415 1.000000 0.494441
v -0.475439 1.000000 0.732112
v -0.159081 1.000000 0.858326
v 0.181495 1.000000 0.853868
v 0.494441 1.000000 0.719415
v 0.732112 1.000000 0.475439
v 0.858326 1.000000 0.159081
v 0.853868 1.000000 -0.181495
v 0.719416 1.000000 -0.494441
v 0.475439 1.000000 -0.732112
v 0.580444 1.334905 -0.398928
v 0.383597 1.334905 -0.590688
v 0.688924 1.334905 -0.146435
v 0.703768 1.318011 0.127359
v 0.590688 1.334905 0.383597
v 0.398928 1.334905 0.580444
v 0.146435 1.334905 0.688924
v -0.128351 1.334905 0.692521
v -0.383597 1.334905 0.590688
v -0.580444 1.334905 0.398928
v -0.688924 1.334905 0.146435
v -0.692521 1.334905 -0.128351
v -0.590688 1.334905 -0.383597
v -0.398928 1.334905 -0.580444
v -0.146435 1.334905 -0.688924
v 0.128352 1.334905 -0.692521
v -0.765837 1.334905 -0.080403
v -0.765837 1.334905 0.080403
v 0.765837 1.334905 0.080403
v 0.765837 1.334905 -0.080403
v -0.906431 1.334905 -0.080403
v -0.906431 1.334905 0.080403
v 0.906431 1.334905 0.080403
v 0.906431 1.334905 -0.080403
v 0.906431 2.898782 -0.080403
v 0.906431 2.898782 0.080403
v -0.906431 2.898782 0.080403
v -0.906431 2.898782 -0.080403
v 0.765837 2.898782 -0.080403
v 0.765837 2.898782 0.080403
v -0.765837 2.898782 0.080403
v -0.765837 2.898782 -0.080403
v 1.000000 2.159197 -0.958101
v 1.000000 2.159197 0.958101
v -1.000000 2.159197 0.958101
v -1.000000 2.159197 -0.958102
v 1.000000 3.144677 0.000000
v -1.000000 3.144677 -0.000000
v -1.000000 3.218613 -0.000000
v 1.000000 3.218613 0.000000
v -1.000000 2.233133 -0.958102
v -1.000000 2.233133 0.958101
v 1.000000 2.233133 0.958101
v 1.000000 2.233133 -0.958101
v 1.000000 2.898782 0.239525
v -1.000000 2.898782 0.239525
v -1.000000 2.972243 0.239525
v 1.000000 2.972243 0.239525
v 1.000000 2.898782 -0.239525
v -1.000000 2.898782 -0.239526
v -1.000000 2.972243 -0.239526
v 1.000000 2.972243 -0.239525
v 0.766230 2.159197 0.958101
v -0.766231 2.159197 0.958101
v 0.766231 2.159197 -0.958101
v -0.766230 2.159197 -0.958101
v -0.766230 2.233133 -0.958101
v 0.766231 2.233133 -0.958101
v -0.766231 2.233133 0.958101
v 0.766230 2.233133 0.958101
v -0.766231 3.218613 -0.000000
v 0.766231 3.218613 -0.000000
v 0.766231 2.898782 0.239525
v -0.766231 2.898782 0.239525
v -0.766231 2.972243 0.239525
v 0.766231 2.972243 0.239525
v 0.766231 2.898782 -0.239525
v -0.766231 2.898782 -0.239525
v -0.766231 2.972243 -0.239525
v 0.766231 2.972243 -0.239525
v 0.535208 1.012492 -0.824148
v 0.809856 1.012492 -0.556598
v 0.961210 1.012492 -0.204311
v 0.966229 1.012492 0.179080
v 0.824148 1.012492 0.535208
v 0.556598 1.012492 0.809856
v 0.204312 1.012492 0.961210
v -0.179080 1.012492 0.966229
v -0.535208 1.012492 0.824148
v -0.809856 1.012492 0.556598
v -0.961210 1.012492 0.204312
v -0.966229 1.012492 -0.179080
v -0.824148 1.012492 -0.535208
v -0.556598 1.012492 -0.809856
v -0.204311 1.012492 -0.961210
v 0.179081 1.012492 -0.966229
v 0.824836 1.032509 -0.566894
v 0.545108 1.032509 -0.839393
v 0.978991 1.032509 -0.208091
v 0.984102 1.032509 0.182393
v 0.839393 1.032509 0.545108
v 0.566895 1.032509 0.824837
v 0.208091 1.032509 0.978991
v -0.182392 1.032509 0.984103
v -0.545108 1.032509 0.839394
v -0.824836 1.032509 0.566895
v -0.978991 1.032509 0.208091
v -0.984102 1.032509 -0.182393
v -0.839393 1.032509 -0.545109
v -0.566894 1.032509 -0.824837
v -0.208090 1.032509 -0.978991
v 0.182393 1.032509 -0.984102
v 0.545108 1.300477 -0.839393
v 0.824836 1.300477 -0.566894
v 0.978991 1.300477 -0.208091
v 0.984102 1.300477 0.182393
v 0.839393 1.300477 0.545108
v 0.566895 1.300477 0.824837
v 0.208091 1.300477 0.978991
v -0.182392 1.300477 0.984103
v -0.545108 1.300477 0.839394
v -0.824836 1.300477 0.566895
v -0.978991 1.300477 0.208091
v -0.984102 1.300477 -0.182393
v -0.839393 1.300477 -0.545109
v -0.566894 1.300477 -0.824837
v -0.208090 1.300477 -0.978991
v 0.182393 1.300477 -0.984102
v 0.795907 1.334905 -0.547012
v 0.525990 1.334905 -0.809954
v 0.944655 1.334905 -0.200793
v 0.809954 1.334905 0.525990
v 0.949587 1.334905 0.175996
v 0.547012 1.334905 0.795907
v 0.200793 1.334905 0.944655
v -0.175995 1.334905 0.949587
v -0.525990 1.334905 0.809954
v -0.795907 1.334905 0.547012
v -0.944655 1.334905 0.200793
v -0.809953 1.334905 -0.525990
v -0.949587 1.334905 -0.175996
v -0.547011 1.334905 -0.795908
v -0.200792 1.334905 -0.944655
v 0.175996 1.334905 -0.949587
vt 0.965578 0.250150
vt 0.965585 0.257723
vt 0.963396 0.253938
vt 0.969950 0.250146
vt 0.969957 0.257719
vt 0.916437 0.263611
vt 0.920353 0.273845
vt 0.916437 0.273845
vt 0.924271 0.273845
vt 0.920353 0.263611
vt 0.924271 0.263611
vt 0.928188 0.273845
vt 0.928188 0.263611
vt 0.932105 0.273845
vt 0.932105 0.263611
vt 0.912520 0.273845
vt 0.908603 0.263611
vt 0.912520 0.263611
vt 0.686995 0.229206
vt 0.679366 0.234564
vt 0.679366 0.229209
vt 0.671735 0.234565
vt 0.671736 0.229209
vt 0.664105 0.229206
vt 0.656473 0.234557
vt 0.656474 0.229200
vt 0.648840 0.234552
vt 0.648840 0.229194
vt 0.641205 0.229188
vt 0.641205 0.234547
vt 0.633568 0.229184
vt 0.625930 0.234547
vt 0.625930 0.229186
vt 0.618292 0.234553
vt 0.618291 0.229192
vt 0.610653 0.234559
vt 0.610653 0.229198
vt 0.603015 0.234565
vt 0.603014 0.229204
vt 0.694625 0.234557
vt 0.686996 0.234561
vt 0.873626 0.378192
vt 0.788962 0.355506
vt 0.873626 0.355506
vt 0.800305 0.397838
vt 0.862283 0.397838
vt 0.819951 0.409181
vt 0.676025 0.066700
vt 0.637289 0.056320
vt 0.658048 0.056320
vt 0.686405 0.084677
vt 0.619311 0.066700
vt 0.608932 0.105436
vt 0.608932 0.084677
vt 0.686405 0.105436
vt 0.619311 0.123414
vt 0.676025 0.123414
vt 0.637788 0.131549
vt 0.800305 0.335860
vt 0.819951 0.324517
vt 0.862283 0.335860
vt 0.664504 0.207120
vt 0.670365 0.188188
vt 0.667484 0.207494
vt 0.674179 0.189266
vt 0.670437 0.207997
vt 0.677835 0.190302
vt 0.673339 0.208613
vt 0.680820 0.192185
vt 0.676186 0.209333
vt 0.658105 0.206638
vt 0.662986 0.187705
vt 0.661486 0.206862
vt 0.666706 0.187548
vt 0.666759 0.186754
vt 0.670518 0.187243
vt 0.674490 0.188209
vt 0.678198 0.189528
vt 0.681695 0.191573
vt 0.658774 0.187616
vt 0.662881 0.186698
vt 0.671453 0.183554
vt 0.675776 0.184640
vt 0.679829 0.186284
vt 0.683485 0.188257
vt 0.662787 0.182797
vt 0.658105 0.183341
vt 0.667200 0.182956
vt 0.686902 0.181926
vt 0.687021 0.186078
vt 0.679710 0.182132
vt 0.683247 0.179953
vt 0.832698 0.251857
vt 0.828835 0.033426
vt 0.832698 0.033426
vt 0.836561 0.251857
vt 0.836561 0.033426
vt 0.840424 0.251857
vt 0.840424 0.033426
vt 0.844287 0.251857
vt 0.844287 0.033426
vt 0.824972 0.251857
vt 0.821109 0.033426
vt 0.824972 0.033426
vt 0.828835 0.251857
vt 0.439125 0.630105
vt 0.378579 0.807865
vt 0.378579 0.630105
vt 0.318033 0.807865
vt 0.318033 0.630105
vt 0.257487 0.807865
vt 0.257487 0.630105
vt 0.196941 0.807865
vt 0.196941 0.630105
vt 0.136395 0.807865
vt 0.136395 0.630105
vt 0.075849 0.807865
vt 0.075849 0.630105
vt 0.015302 0.807865
vt 0.015302 0.630105
vt 0.984039 0.630101
vt 0.923494 0.807861
vt 0.923493 0.630101
vt 0.862948 0.807862
vt 0.862947 0.630102
vt 0.802402 0.807862
vt 0.802401 0.630102
vt 0.741856 0.807863
vt 0.741855 0.630103
vt 0.681310 0.807863
vt 0.681309 0.630103
vt 0.620764 0.807864
vt 0.620763 0.630104
vt 0.560218 0.807864
vt 0.560217 0.630104
vt 0.499672 0.807865
vt 0.499671 0.630104
vt 0.439126 0.807865
vt 0.382007 0.476609
vt 0.422636 0.622557
vt 0.382007 0.622557
vt 0.422636 0.476609
vt 0.463265 0.622557
vt 0.463266 0.476609
vt 0.503895 0.622558
vt 0.503895 0.476609
vt 0.544524 0.622558
vt 0.544525 0.476609
vt 0.585154 0.622558
vt 0.585154 0.476609
vt 0.625783 0.622558
vt 0.625784 0.476609
vt 0.666412 0.622558
vt 0.016341 0.476609
vt 0.056972 0.622558
vt 0.016342 0.622559
vt 0.056971 0.476609
vt 0.097601 0.622558
vt 0.097600 0.476609
vt 0.138231 0.622558
vt 0.138230 0.476609
vt 0.178860 0.622557
vt 0.178859 0.476609
vt 0.219490 0.622557
vt 0.219489 0.476609
vt 0.260119 0.622557
vt 0.260119 0.476608
vt 0.300748 0.622557
vt 0.341377 0.622557
vt 0.300748 0.476608
vt 0.341378 0.476609
vt 0.134782 0.841247
vt 0.076709 0.861368
vt 0.076709 0.841247
vt 0.016880 0.860481
vt 0.984658 0.861368
vt 0.933556 0.841247
vt 0.984658 0.841247
vt 0.878813 0.861368
vt 0.933556 0.861368
vt 0.821691 0.861368
vt 0.878813 0.841247
vt 0.762420 0.841247
vt 0.821691 0.841247
vt 0.762420 0.861368
vt 0.701813 0.841247
vt 0.638500 0.861368
vt 0.701813 0.861368
vt 0.574147 0.841247
vt 0.638500 0.841247
vt 0.574147 0.861368
vt 0.506685 0.841247
vt 0.443127 0.861368
vt 0.506685 0.861368
vt 0.380371 0.861368
vt 0.443127 0.841247
vt 0.316642 0.841247
vt 0.380371 0.841247
vt 0.255094 0.861368
vt 0.316642 0.861368
vt 0.193949 0.861368
vt 0.255094 0.841247
vt 0.193949 0.841247
vt 0.134782 0.861368
vt 0.076709 0.901003
vt 0.134782 0.868868
vt 0.134782 0.901003
vt 0.016436 0.901003
vt 0.076709 0.868868
vt 0.933556 0.901003
vt 0.984658 0.868868
vt 0.984658 0.901003
vt 0.878813 0.901003
vt 0.933556 0.868868
vt 0.821691 0.901003
vt 0.878813 0.868868
vt 0.762420 0.901003
vt 0.821691 0.868868
vt 0.701813 0.901003
vt 0.762420 0.868868
vt 0.638500 0.901003
vt 0.701813 0.868868
vt 0.574147 0.901003
vt 0.638500 0.868868
vt 0.506685 0.901003
vt 0.574147 0.868868
vt 0.443127 0.901003
vt 0.506685 0.868868
vt 0.380371 0.901003
vt 0.443127 0.868868
vt 0.316642 0.901003
vt 0.380371 0.868868
vt 0.255094 0.901003
vt 0.316642 0.868868
vt 0.193949 0.901003
vt 0.255094 0.868868
vt 0.193949 0.868868
vt 0.134782 0.911667
vt 0.076709 0.948924
vt 0.076709 0.911667
vt 0.016436 0.911667
vt 0.017028 0.948924
vt 0.878813 0.911667
vt 0.933556 0.948924
vt 0.878813 0.948924
vt 0.821691 0.948924
vt 0.821691 0.911667
vt 0.762420 0.911667
vt 0.762420 0.948924
vt 0.701813 0.948924
vt 0.701813 0.911667
vt 0.638500 0.948924
vt 0.638500 0.911667
vt 0.574147 0.948924
vt 0.574147 0.911667
vt 0.505616 0.911229
vt 0.506685 0.948924
vt 0.380371 0.911667
vt 0.443127 0.948924
vt 0.380371 0.948924
vt 0.316642 0.948924
vt 0.316642 0.911667
vt 0.255094 0.948924
vt 0.255094 0.911667
vt 0.193949 0.948924
vt 0.193949 0.911667
vt 0.134782 0.948924
vt 0.489025 0.939708
vt 0.972791 0.936881
vt 0.984658 0.948924
vt 0.446723 0.911287
vt 0.487087 0.923999
vt 0.464733 0.923521
vt 0.935559 0.911247
vt 0.972680 0.921619
vt 0.950534 0.921717
vt 0.920189 0.020775
vt 0.893158 0.243661
vt 0.893158 0.020775
vt 0.920189 0.020775
vt 0.893158 0.243661
vt 0.893158 0.020775
vt 0.951538 0.020775
vt 0.924902 0.243661
vt 0.924902 0.020775
vt 0.983088 0.243381
vt 0.955358 0.020495
vt 0.955359 0.243381
vt 0.888068 0.020775
vt 0.861648 0.243661
vt 0.861648 0.020775
vt 0.951538 0.243661
vt 0.924902 0.020775
vt 0.924902 0.243661
vt 0.983088 0.243382
vt 0.955359 0.020496
vt 0.955358 0.243382
vt 0.888068 0.020775
vt 0.861648 0.243661
vt 0.861648 0.020775
vt 0.970577 0.358600
vt 0.872286 0.436649
vt 0.970583 0.335045
vt 0.872286 0.460197
vt 0.832973 0.477008
vt 0.832973 0.477008
vt 0.872286 0.460197
vt 0.872286 0.436649
vt 0.970577 0.358600
vt 0.970583 0.335045
vt 0.793659 0.460198
vt 0.793659 0.436649
vt 0.695365 0.358601
vt 0.695358 0.335045
vt 0.695365 0.358601
vt 0.793659 0.436649
vt 0.695358 0.335045
vt 0.793659 0.460198
vt 0.774715 0.054084
vt 0.748623 0.261956
vt 0.747499 0.054274
vt 0.720335 0.014383
vt 0.774735 0.030277
vt 0.747428 0.030298
vt 0.802953 0.301638
vt 0.748611 0.285735
vt 0.775873 0.285718
vt 0.369611 0.308530
vt 0.391252 0.265239
vt 0.391252 0.308530
vt 0.369611 0.265239
vt 0.391252 0.064132
vt 0.369611 0.064132
vt 0.391252 0.021272
vt 0.412893 0.064132
vt 0.391252 0.021272
vt 0.412893 0.021272
vt 0.412893 0.265239
vt 0.391252 0.064132
vt 0.412893 0.308530
vt 0.391252 0.265239
vt 0.444954 0.267244
vt 0.585308 0.299062
vt 0.444954 0.299062
vt 0.585308 0.058661
vt 0.585308 0.267244
vt 0.444954 0.026843
vt 0.444954 0.058661
vt 0.330559 0.241573
vt 0.297791 0.193408
vt 0.330559 0.193408
vt 0.082982 0.241573
vt 0.297791 0.241573
vt 0.050214 0.241573
vt 0.082982 0.193408
vt 0.330559 0.048913
vt 0.297791 0.048913
vt 0.050214 0.193408
vt 0.082982 0.048912
vt 0.585317 0.058752
vt 0.444963 0.026934
vt 0.585317 0.026934
vt 0.444963 0.267335
vt 0.444963 0.058752
vt 0.585317 0.299154
vt 0.585317 0.267335
vt 0.297791 0.434234
vt 0.330559 0.289738
vt 0.330559 0.434234
vt 0.082982 0.434234
vt 0.297791 0.289738
vt 0.050214 0.289738
vt 0.082982 0.289738
vt 0.721627 0.261916
vt 0.803056 0.261876
vt 0.720291 0.054170
vt 0.801733 0.054124
vt 0.775865 0.261736
vt 0.907477 0.534651
vt 0.943804 0.527425
vt 0.961248 0.534651
vt 0.974600 0.548002
vt 0.886899 0.565447
vt 0.981826 0.565447
vt 0.981826 0.584329
vt 0.894125 0.601774
vt 0.974600 0.601774
vt 0.961249 0.615126
vt 0.924922 0.622352
vt 0.943804 0.622352
vt 0.134782 0.982236
vt 0.076709 0.982236
vt 0.984658 0.982236
vt 0.878813 0.982236
vt 0.821691 0.982236
vt 0.762420 0.982236
vt 0.701813 0.982236
vt 0.638500 0.982236
vt 0.574147 0.982236
vt 0.506685 0.982236
vt 0.443127 0.982236
vt 0.380371 0.982236
vt 0.316642 0.982236
vt 0.255094 0.982236
vt 0.193949 0.982236
vt 0.016880 0.868573
vt 0.984836 0.911297
vt 0.950333 0.936864
vt 0.463229 0.939206
vt 0.972139 0.253930
vt 0.908603 0.273845
vt 0.664105 0.234562
vt 0.633568 0.234545
vt 0.694625 0.229202
vt 0.788962 0.378192
vt 0.842637 0.409181
vt 0.657798 0.131549
vt 0.842637 0.324517
vt 0.659316 0.188352
vt 0.821109 0.251857
vt 0.984040 0.807860
vt 0.666413 0.476610
vt 0.015548 0.841247
vt 0.920189 0.243661
vt 0.920189 0.243661
vt 0.951538 0.243661
vt 0.983088 0.020495
vt 0.888068 0.243661
vt 0.951538 0.020775
vt 0.983088 0.020496
vt 0.888068 0.243661
vt 0.832973 0.500634
vt 0.832973 0.500634
vt 0.801775 0.014380
vt 0.721591 0.301612
vt 0.369611 0.021272
vt 0.391252 0.308530
vt 0.585308 0.026843
vt 0.050214 0.048912
vt 0.444963 0.299154
vt 0.050214 0.434234
vt 0.924922 0.527425
vt 0.894125 0.548002
vt 0.886899 0.584329
vt 0.907477 0.615126
vt 0.016732 0.982236
vt 0.933556 0.982236
vn -0.6100 0.2051 0.7654
vn -0.6100 -0.7654 -0.2051
vn -0.6100 -0.5603 0.5603
vn -0.6100 0.7654 0.2051
vn -0.6100 -0.2051 -0.7654
vn 0.0000 0.7071 -0.7071
vn -0.6100 0.5603 -0.5603
vn 0.0000 -0.2588 -0.9659
vn 0.0000 -0.9659 -0.2588
vn 0.0000 -0.7071 0.7071
vn 0.0000 0.2588 0.9659
vn 0.0000 0.9659 0.2588
vn -0.6532 0.5354 -0.5354
vn 0.6532 0.1960 -0.7313
vn -0.6532 0.1960 -0.7313
vn 0.6532 -0.1960 -0.7313
vn -0.6532 -0.1960 -0.7313
vn -0.6532 -0.5354 -0.5354
vn 0.6532 -0.7313 -0.1960
vn -0.6532 -0.7313 -0.1960
vn 0.6532 -0.7313 0.1960
vn -0.6532 -0.7313 0.1960
vn -0.6532 -0.5354 0.5354
vn 0.6532 -0.5354 0.5354
vn -0.6532 -0.1960 0.7313
vn 0.6532 0.1960 0.7313
vn -0.6532 0.1960 0.7313
vn 0.6532 0.5354 0.5354
vn -0.6532 0.5354 0.5354
vn 0.6532 0.7313 0.1960
vn -0.6532 0.7313 0.1960
vn 0.6532 0.7313 -0.1960
vn -0.6532 0.7313 -0.1960
vn 0.6532 0.5354 -0.5354
vn 0.6532 -0.1960 0.7313
vn 0.6532 -0.5354 -0.5354
vn -0.5385 -0.2181 -0.8139
vn -0.5385 -0.8139 -0.2181
vn -0.5385 -0.5958 0.5958
vn -0.5385 0.2181 0.8139
vn -0.5385 0.8139 0.2181
vn -0.5385 0.5958 -0.5958
vn -0.4123 0.6442 -0.6442
vn -0.4122 -0.2358 -0.8800
vn -0.4122 -0.8800 -0.2358
vn -0.4122 -0.6442 0.6442
vn -0.4122 0.2358 0.8800
vn -0.4122 0.8800 0.2358
vn 0.6100 -0.2051 -0.7654
vn 0.6100 -0.7654 -0.2051
vn 0.6100 -0.5603 0.5603
vn 0.6100 0.2051 0.7654
vn 0.6100 0.7654 0.2051
vn 0.6100 0.5603 -0.5603
vn 0.5446 0.0000 -0.8386
vn 0.8241 0.0000 -0.5664
vn 0.9781 0.0000 -0.2079
vn 0.9832 0.0000 0.1822
vn 0.8386 0.0000 0.5446
vn 0.5664 0.0000 0.8241
vn 0.2079 0.0000 0.9781
vn -0.1822 0.0000 0.9832
vn -0.5446 0.0000 0.8386
vn -0.8241 0.0000 0.5664
vn -0.9781 0.0000 0.2079
vn -0.9832 0.0000 -0.1822
vn -0.8386 0.0000 -0.5446
vn -0.5664 0.0000 -0.8241
vn -0.2079 0.0000 -0.9781
vn 0.1822 0.0000 -0.9832
vn 0.0616 -0.9936 -0.0949
vn 0.4033 -0.8720 -0.2772
vn 0.0932 -0.9936 -0.0641
vn 0.4787 -0.8720 -0.1017
vn 0.1112 -0.9936 0.0206
vn 0.1106 -0.9936 -0.0235
vn 0.4104 -0.8720 0.2665
vn 0.4812 -0.8720 0.0892
vn 0.2772 -0.8720 0.4033
vn 0.0949 -0.9936 0.0616
vn 0.0235 -0.9936 0.1106
vn 0.0641 -0.9936 0.0932
vn 0.1017 -0.8720 0.4787
vn -0.0206 -0.9936 0.1112
vn -0.2665 -0.8720 0.4104
vn -0.0892 -0.8720 0.4812
vn -0.0932 -0.9936 0.0641
vn -0.0616 -0.9936 0.0949
vn -0.4033 -0.8720 0.2772
vn -0.1106 -0.9936 0.0235
vn -0.4812 -0.8720 -0.0892
vn -0.4787 -0.8720 0.1017
vn -0.4104 -0.8720 -0.2665
vn -0.1112 -0.9936 -0.0206
vn -0.0641 -0.9936 -0.0932
vn -0.0949 -0.9936 -0.0616
vn -0.1017 -0.8720 -0.4787
vn -0.2772 -0.8720 -0.4033
vn 0.0892 -0.8720 -0.4812
vn -0.0235 -0.9936 -0.1106
vn 0.0206 -0.9936 -0.1112
vn 0.2665 -0.8720 -0.4104
vn 0.7653 0.3710 -0.5260
vn 0.5110 -0.3461 -0.7868
vn 0.5058 0.3710 -0.7788
vn 0.9083 0.3710 -0.1931
vn 0.7732 -0.3461 -0.5314
vn 0.9131 0.3710 0.1692
vn 0.9177 -0.3461 -0.1950
vn 0.7788 0.3710 0.5058
vn 0.9225 -0.3461 0.1710
vn 0.5260 0.3710 0.7653
vn 0.7868 -0.3461 0.5110
vn 0.1931 0.3710 0.9083
vn 0.5314 -0.3461 0.7732
vn -0.1692 0.3710 0.9131
vn 0.1950 -0.3461 0.9177
vn -0.5058 0.3710 0.7788
vn -0.1710 -0.3461 0.9225
vn -0.7653 0.3710 0.5260
vn -0.5110 -0.3461 0.7868
vn -0.9083 0.3710 0.1931
vn -0.7732 -0.3461 0.5314
vn -0.9131 0.3710 -0.1692
vn -0.9177 -0.3461 0.1950
vn -0.7788 0.3710 -0.5058
vn -0.9225 -0.3461 -0.1710
vn -0.5260 0.3710 -0.7653
vn -0.7868 -0.3461 -0.5110
vn -0.1931 0.3710 -0.9083
vn -0.5314 -0.3461 -0.7732
vn 0.1692 0.3710 -0.9131
vn -0.1950 -0.3461 -0.9177
vn 0.1710 -0.3461 -0.9225
vn 0.2272 0.9088 -0.3499
vn -0.5416 0.7537 0.3722
vn 0.3438 0.9088 -0.2363
vn 0.4081 0.9088 -0.0867
vn -0.6424 0.7490 0.1617
vn 0.3482 0.9116 0.2185
vn -0.6874 0.7211 -0.0866
vn -0.5291 0.7548 -0.3876
vn -0.3722 0.7537 -0.5416
vn 0.2363 0.9088 0.3438
vn 0.0867 0.9088 0.4081
vn -0.1366 0.7537 -0.6428
vn 0.1197 0.7537 -0.6461
vn -0.0760 0.9088 0.4102
vn 0.3579 0.7537 -0.5511
vn -0.2272 0.9088 0.3499
vn 0.5416 0.7537 -0.3722
vn -0.3438 0.9088 0.2363
vn -0.4081 0.9088 0.0867
vn 0.6428 0.7537 -0.1366
vn -0.3499 0.9088 -0.2272
vn 0.6461 0.7537 0.1197
vn 0.5511 0.7537 0.3579
vn 0.3722 0.7537 0.5416
vn -0.2363 0.9088 -0.3438
vn 0.1366 0.7537 0.6428
vn -0.0867 0.9088 -0.4081
vn -0.1198 0.7537 0.6461
vn 0.0760 0.9088 -0.4102
vn -0.3579 0.7537 0.5511
vn 0.3015 0.9045 0.3015
vn -0.3368 0.9002 -0.2761
vn -0.4102 0.9088 -0.0760
vn -0.3015 0.9045 0.3015
vn -0.3015 0.9045 -0.3015
vn 0.3926 0.9161 0.0812
vn 0.3015 0.9045 -0.3015
vn 0.3015 -0.9045 0.3015
vn -0.3015 -0.9045 -0.3015
vn 0.3015 -0.9045 -0.3015
vn -0.4299 0.8275 0.3611
vn -0.3015 -0.9045 0.3015
vn -0.6314 0.2917 0.7185
vn -0.8061 -0.5451 -0.2304
vn -0.5466 -0.7760 0.3149
vn -0.7071 0.4929 0.5070
vn -1.0000 0.0000 0.0000
vn 1.0000 0.0000 0.0000
vn 0.7071 0.4929 0.5070
vn 0.8061 -0.5451 -0.2304
vn 0.6314 0.2917 0.7185
vn 0.5466 -0.7760 0.3149
vn -0.7071 0.4929 -0.5070
vn -0.8061 -0.5451 0.2304
vn -0.6314 0.2917 -0.7185
vn -0.5466 -0.7760 -0.3149
vn 0.6314 0.2917 -0.7185
vn 0.8061 -0.5451 0.2304
vn 0.5466 -0.7760 -0.3149
vn 0.7071 0.4929 -0.5070
vn 0.0000 -0.9266 -0.3760
vn 0.0000 0.3761 -0.9265
vn 0.0000 0.3761 0.9265
vn 0.0000 -0.9266 0.3760
vn 0.0000 -0.9211 -0.3893
vn 0.5759 0.8175 0.0000
vn 0.0000 0.6971 0.7170
vn 0.0000 1.0000 0.0000
vn -0.5759 0.8175 0.0000
vn 0.0000 -0.9211 0.3893
vn 0.0000 0.6971 -0.7170
vn -0.9761 0.0098 0.2169
vn -0.8341 0.0087 -0.5515
vn -0.9825 0.0338 -0.1833
usemtl well.covered.O.ma
s 1
f 11/1/1 9/2/2 10/3/3
f 12/4/4 8/5/5 11/1/1
f 1/6/6 8/7/5 7/8/7
f 9/9/2 2/10/8 3/11/9
f 10/12/3 3/11/9 4/13/10
f 11/14/1 4/13/10 5/15/11
f 12/16/4 5/17/11 6/18/12
f 7/8/7 6/18/12 1/6/6
f 13/19/13 26/20/14 14/21/15
f 14/21/15 27/22/16 15/23/17
f 27/22/16 16/24/18 15/23/17
f 16/24/18 29/25/19 17/26/20
f 17/26/20 30/27/21 18/28/22
f 30/27/21 19/29/23 18/28/22
f 31/30/24 20/31/25 19/29/23
f 20/31/25 33/32/26 21/33/27
f 21/33/27 34/34/28 22/35/29
f 22/35/29 35/36/30 23/37/31
f 23/37/31 36/38/32 24/39/33
f 13/19/13 36/40/32 25/41/34
f 26/42/14 32/43/35 27/44/16
f 34/45/28 26/42/14 25/46/34
f 25/46/34 35/47/30 34/45/28
f 13/48/13 23/49/31 24/50/33
f 14/51/15 22/52/29 13/48/13
f 14/51/15 20/53/25 21/54/27
f 15/55/17 19/56/23 20/53/25
f 16/57/18 18/58/22 19/56/23
f 31/59/24 27/44/16 32/43/35
f 30/60/21 28/61/36 31/59/24
f 37/62/6 44/63/37 38/64/8
f 38/64/8 45/65/38 39/66/9
f 39/66/9 46/67/39 40/68/10
f 40/68/10 47/69/40 41/70/11
f 41/71/11 48/72/41 42/73/12
f 42/73/12 43/74/42 37/62/6
f 44/63/37 49/75/43 50/76/44
f 45/65/38 50/76/44 51/77/45
f 45/65/38 52/78/46 46/67/39
f 46/67/39 53/79/47 47/69/40
f 48/72/41 53/80/47 54/81/48
f 48/72/41 49/75/43 43/74/42
f 49/75/43 55/82/49 50/76/44
f 50/76/44 57/83/50 51/77/45
f 51/77/45 58/84/51 52/78/46
f 52/78/46 59/85/52 53/79/47
f 60/86/53 53/80/47 59/87/52
f 56/88/54 54/81/48 60/86/53
f 56/89/54 60/90/53 59/85/52
f 57/91/50 55/92/49 58/84/51
f 59/85/52 55/92/49 56/89/54
f 68/93/8 61/94/6 62/95/8
f 69/96/9 62/95/8 63/97/9
f 70/98/10 63/97/9 64/99/10
f 71/100/11 64/99/10 65/101/11
f 72/102/12 65/103/11 66/104/12
f 66/104/12 67/105/6 72/102/12
f 73/106/55 90/107/56 74/108/56
f 74/108/56 91/109/57 75/110/57
f 75/110/57 92/111/58 76/112/58
f 76/112/58 93/113/59 77/114/59
f 77/114/59 94/115/60 78/116/60
f 78/116/60 95/117/61 79/118/61
f 79/118/61 96/119/62 80/120/62
f 80/121/62 97/122/63 81/123/63
f 81/123/63 98/124/64 82/125/64
f 82/125/64 99/126/65 83/127/65
f 83/127/65 100/128/66 84/129/66
f 84/129/66 101/130/67 85/131/67
f 85/131/67 102/132/68 86/133/68
f 86/133/68 103/134/69 87/135/69
f 87/135/69 104/136/70 88/137/70
f 73/106/55 104/136/70 89/138/55
f 106/139/63 122/140/64 121/141/63
f 105/142/64 123/143/65 122/140/64
f 107/144/65 124/145/66 123/143/65
f 108/146/66 125/147/67 124/145/66
f 109/148/67 126/149/68 125/147/67
f 110/150/68 127/151/69 126/149/68
f 111/152/69 128/153/70 127/151/69
f 112/154/70 129/155/55 128/156/70
f 113/157/55 130/158/56 129/155/55
f 114/159/56 131/160/57 130/158/56
f 115/161/57 132/162/58 131/160/57
f 116/163/58 133/164/59 132/162/58
f 117/165/59 134/166/60 133/164/59
f 118/167/60 135/168/61 134/166/60
f 136/169/62 119/170/61 120/171/62
f 120/171/62 121/141/63 136/169/62
f 184/172/71 256/173/72 183/174/73
f 257/175/74 183/174/73 256/173/72
f 257/176/74 181/177/75 182/178/76
f 259/179/77 181/177/75 258/180/78
f 260/181/79 180/182/80 259/179/77
f 260/181/79 178/183/81 179/184/82
f 261/185/83 177/186/84 178/183/81
f 263/187/85 177/186/84 262/188/86
f 263/187/85 175/189/87 176/190/88
f 264/191/89 174/192/90 175/189/87
f 266/193/91 174/192/90 265/194/92
f 267/195/93 173/196/94 266/193/91
f 267/195/93 171/197/95 172/198/96
f 269/199/97 171/197/95 268/200/98
f 270/201/99 170/202/100 269/199/97
f 169/203/101 255/204/102 184/172/71
f 288/205/103 272/206/104 287/207/105
f 289/208/106 271/209/107 288/205/103
f 290/210/108 273/211/109 289/212/106
f 291/213/110 274/214/111 290/210/108
f 292/215/112 275/216/113 291/213/110
f 293/217/114 276/218/115 292/215/112
f 294/219/116 277/220/117 293/217/114
f 295/221/118 278/222/119 294/219/116
f 296/223/120 279/224/121 295/221/118
f 297/225/122 280/226/123 296/223/120
f 298/227/124 281/228/125 297/225/122
f 299/229/126 282/230/127 298/227/124
f 300/231/128 283/232/129 299/229/126
f 301/233/130 284/234/131 300/231/128
f 302/235/132 285/236/133 301/233/130
f 287/207/105 286/237/134 302/235/132
f 304/238/135 185/239/136 303/240/137
f 305/241/138 185/239/136 187/242/139
f 306/243/140 188/244/141 189/245/142
f 306/243/140 190/246/143 308/247/144
f 309/248/145 190/246/143 191/249/146
f 309/248/145 192/250/147 310/251/148
f 310/251/148 193/252/149 311/253/150
f 311/253/150 194/254/151 312/255/152
f 313/256/153 194/254/151 195/257/154
f 314/258/155 196/259/156 197/260/157
f 314/258/155 198/261/158 316/262/159
f 316/262/159 199/263/160 317/264/161
f 317/264/161 200/265/162 318/266/163
f 304/238/135 200/265/162 186/267/164
f 196/259/156 202/268/165 195/257/154
f 188/244/141 204/269/166 187/270/139
f 315/271/167 206/272/168 205/273/169
f 307/274/170 208/275/171 207/276/165
f 208/277/171 210/278/172 207/279/165
f 206/280/168 212/281/173 205/282/169
f 204/283/166 209/284/174 208/285/171
f 203/286/175 213/287/173 204/288/166
f 207/289/165 214/290/176 203/291/175
f 202/292/165 211/293/176 206/294/168
f 201/295/171 215/296/172 202/297/165
f 205/298/169 216/299/174 201/300/171
f 226/301/177 230/302/178 219/303/179
f 231/304/180 222/305/181 230/302/178
f 221/306/182 232/307/183 229/308/184
f 229/308/184 227/309/185 218/310/186
f 222/305/181 235/311/187 234/312/188
f 234/312/188 225/313/189 220/314/190
f 228/315/191 233/316/192 217/317/193
f 236/318/194 221/306/182 233/316/192
f 221/306/182 229/308/184 233/316/192
f 222/305/181 234/312/188 230/302/178
f 214/319/176 216/320/174 213/321/173
f 233/322/192 210/323/172 209/324/174
f 230/325/178 212/326/173 211/327/176
f 225/328/189 240/329/195 220/330/190
f 241/331/196 239/332/195 240/329/195
f 242/333/196 217/334/193 239/332/195
f 244/335/197 218/336/186 227/337/185
f 243/338/197 237/339/198 244/335/197
f 226/340/177 238/341/198 243/338/197
f 237/342/198 229/343/184 218/344/186
f 237/342/198 248/345/199 247/346/199
f 219/347/179 248/345/199 238/348/198
f 224/349/200 250/350/201 232/351/183
f 245/352/202 250/350/201 246/353/202
f 223/354/203 249/355/201 245/352/202
f 250/350/201 227/356/185 232/351/183
f 249/355/201 244/357/197 250/350/201
f 231/358/180 243/359/197 249/355/201
f 251/360/204 217/361/193 233/362/192
f 251/360/204 240/363/195 239/364/195
f 234/365/188 240/363/195 252/366/204
f 242/367/196 236/368/194 228/369/191
f 241/370/196 254/371/205 242/367/196
f 241/370/196 235/372/187 253/373/205
f 254/371/205 224/349/200 236/368/194
f 253/373/205 246/353/202 254/371/205
f 235/372/187 245/352/202 253/373/205
f 212/326/173 252/374/204 216/320/174
f 211/327/176 248/375/199 230/325/178
f 213/321/173 252/374/204 251/376/204
f 209/324/174 251/376/204 233/322/192
f 210/323/172 247/377/199 214/319/176
f 247/377/199 215/378/172 214/319/176
f 160/379/202 162/380/202 163/381/202
f 164/382/202 160/379/202 163/381/202
f 158/383/202 164/382/202 165/384/202
f 166/385/202 158/383/202 165/384/202
f 156/386/202 166/385/202 168/387/202
f 167/388/202 156/386/202 168/387/202
f 154/389/202 167/388/202 153/390/202
f 152/391/63 185/239/136 186/267/164
f 151/392/64 187/242/139 185/239/136
f 150/393/206 188/244/141 187/270/139
f 188/244/141 148/394/207 189/245/142
f 148/394/207 190/246/143 189/245/142
f 147/395/68 191/249/146 190/246/143
f 146/396/69 192/250/147 191/249/146
f 145/397/70 193/252/149 192/250/147
f 144/398/55 194/254/151 193/252/149
f 143/399/56 195/257/154 194/254/151
f 142/400/57 196/259/156 195/257/154
f 141/401/58 197/260/157 196/259/156
f 140/402/59 198/261/158 197/260/157
f 139/403/60 199/263/160 198/261/158
f 138/404/61 200/265/162 199/263/160
f 137/405/62 186/267/164 200/265/162
f 256/173/72 272/206/104 271/209/107
f 257/175/74 271/209/107 273/406/109
f 258/180/78 273/211/109 274/214/111
f 259/179/77 274/214/111 275/216/113
f 260/181/79 275/216/113 276/218/115
f 261/185/83 276/218/115 277/220/117
f 262/188/86 277/220/117 278/222/119
f 263/187/85 278/222/119 279/224/121
f 264/191/89 279/224/121 280/226/123
f 265/194/92 280/226/123 281/228/125
f 266/193/91 281/228/125 282/230/127
f 283/232/129 266/193/91 282/230/127
f 268/200/98 283/232/129 284/234/131
f 269/199/97 284/234/131 285/236/133
f 286/237/134 269/199/97 285/236/133
f 286/237/134 255/204/102 270/201/99
f 287/207/105 303/240/137 288/205/103
f 289/208/106 303/240/137 305/241/138
f 290/210/108 305/407/138 307/274/170
f 306/243/140 290/210/108 307/274/170
f 308/247/144 291/213/110 306/243/140
f 293/217/114 308/247/144 309/248/145
f 310/251/148 293/217/114 309/248/145
f 295/221/118 310/251/148 311/253/150
f 312/255/152 295/221/118 311/253/150
f 297/225/122 312/255/152 313/256/153
f 298/227/124 313/256/153 315/271/167
f 299/229/126 315/271/167 314/258/155
f 300/231/128 314/258/155 316/262/159
f 301/233/130 316/262/159 317/264/161
f 302/235/132 317/264/161 318/266/163
f 318/266/163 287/207/105 302/235/132
f 203/408/175 307/274/170 207/276/165
f 204/269/166 305/407/138 187/270/139
f 202/268/165 313/256/153 195/257/154
f 201/409/171 315/271/167 205/273/169
f 11/1/1 8/5/5 9/2/2
f 12/4/4 7/410/7 8/5/5
f 1/6/6 2/10/8 8/7/5
f 9/9/2 8/7/5 2/10/8
f 10/12/3 9/9/2 3/11/9
f 11/14/1 10/12/3 4/13/10
f 12/16/4 11/411/1 5/17/11
f 7/8/7 12/16/4 6/18/12
f 13/19/13 25/41/34 26/20/14
f 14/21/15 26/20/14 27/22/16
f 27/22/16 28/412/36 16/24/18
f 16/24/18 28/412/36 29/25/19
f 17/26/20 29/25/19 30/27/21
f 30/27/21 31/30/24 19/29/23
f 31/30/24 32/413/35 20/31/25
f 20/31/25 32/413/35 33/32/26
f 21/33/27 33/32/26 34/34/28
f 22/35/29 34/34/28 35/36/30
f 23/37/31 35/36/30 36/38/32
f 13/19/13 24/414/33 36/40/32
f 26/42/14 33/415/26 32/43/35
f 34/45/28 33/415/26 26/42/14
f 25/46/34 36/416/32 35/47/30
f 13/48/13 22/52/29 23/49/31
f 14/51/15 21/54/27 22/52/29
f 14/51/15 15/55/17 20/53/25
f 15/55/17 16/57/18 19/56/23
f 16/57/18 17/417/20 18/58/22
f 31/59/24 28/61/36 27/44/16
f 30/60/21 29/418/19 28/61/36
f 37/62/6 43/74/42 44/63/37
f 38/64/8 44/63/37 45/65/38
f 39/66/9 45/65/38 46/67/39
f 40/68/10 46/67/39 47/69/40
f 41/71/11 47/419/40 48/72/41
f 42/73/12 48/72/41 43/74/42
f 44/63/37 43/74/42 49/75/43
f 45/65/38 44/63/37 50/76/44
f 45/65/38 51/77/45 52/78/46
f 46/67/39 52/78/46 53/79/47
f 48/72/41 47/419/40 53/80/47
f 48/72/41 54/81/48 49/75/43
f 49/75/43 56/88/54 55/82/49
f 50/76/44 55/82/49 57/83/50
f 51/77/45 57/83/50 58/84/51
f 52/78/46 58/84/51 59/85/52
f 60/86/53 54/81/48 53/80/47
f 56/88/54 49/75/43 54/81/48
f 59/85/52 58/84/51 55/92/49
f 68/93/8 67/105/6 61/94/6
f 69/96/9 68/93/8 62/95/8
f 70/98/10 69/96/9 63/97/9
f 71/100/11 70/98/10 64/99/10
f 72/102/12 71/420/11 65/103/11
f 66/104/12 61/94/6 67/105/6
f 73/106/55 89/138/55 90/107/56
f 74/108/56 90/107/56 91/109/57
f 75/110/57 91/109/57 92/111/58
f 76/112/58 92/111/58 93/113/59
f 77/114/59 93/113/59 94/115/60
f 78/116/60 94/115/60 95/117/61
f 79/118/61 95/117/61 96/119/62
f 80/121/62 96/421/62 97/122/63
f 81/123/63 97/122/63 98/124/64
f 82/125/64 98/124/64 99/126/65
f 83/127/65 99/126/65 100/128/66
f 84/129/66 100/128/66 101/130/67
f 85/131/67 101/130/67 102/132/68
f 86/133/68 102/132/68 103/134/69
f 87/135/69 103/134/69 104/136/70
f 73/106/55 88/137/70 104/136/70
f 106/139/63 105/142/64 122/140/64
f 105/142/64 107/144/65 123/143/65
f 107/144/65 108/146/66 124/145/66
f 108/146/66 109/148/67 125/147/67
f 109/148/67 110/150/68 126/149/68
f 110/150/68 111/152/69 127/151/69
f 111/152/69 112/422/70 128/153/70
f 112/154/70 113/157/55 129/155/55
f 113/157/55 114/159/56 130/158/56
f 114/159/56 115/161/57 131/160/57
f 115/161/57 116/163/58 132/162/58
f 116/163/58 117/165/59 133/164/59
f 117/165/59 118/167/60 134/166/60
f 118/167/60 119/170/61 135/168/61
f 136/169/62 135/168/61 119/170/61
f 120/171/62 106/139/63 121/141/63
f 184/172/71 255/204/102 256/173/72
f 257/175/74 182/423/76 183/174/73
f 257/176/74 258/180/78 181/177/75
f 259/179/77 180/182/80 181/177/75
f 260/181/79 179/184/82 180/182/80
f 260/181/79 261/185/83 178/183/81
f 261/185/83 262/188/86 177/186/84
f 263/187/85 176/190/88 177/186/84
f 263/187/85 264/191/89 175/189/87
f 264/191/89 265/194/92 174/192/90
f 266/193/91 173/196/94 174/192/90
f 267/195/93 172/198/96 173/196/94
f 267/195/93 268/200/98 171/197/95
f 269/199/97 170/202/100 171/197/95
f 270/201/99 169/203/101 170/202/100
f 169/203/101 270/201/99 255/204/102
f 288/205/103 271/209/107 272/206/104
f 289/208/106 273/406/109 271/209/107
f 290/210/108 274/214/111 273/211/109
f 291/213/110 275/216/113 274/214/111
f 292/215/112 276/218/115 275/216/113
f 293/217/114 277/220/117 276/218/115
f 294/219/116 278/222/119 277/220/117
f 295/221/118 279/224/121 278/222/119
f 296/223/120 280/226/123 279/224/121
f 297/225/122 281/228/125 280/226/123
f 298/227/124 282/230/127 281/228/125
f 299/229/126 283/232/129 282/230/127
f 300/231/128 284/234/131 283/232/129
f 301/233/130 285/236/133 284/234/131
f 302/235/132 286/237/134 285/236/133
f 287/207/105 272/206/104 286/237/134
f 304/238/135 186/267/164 185/239/136
f 305/241/138 303/240/137 185/239/136
f 306/243/140 307/274/170 188/244/141
f 306/243/140 189/245/142 190/246/143
f 309/248/145 308/247/144 190/246/143
f 309/248/145 191/249/146 192/250/147
f 310/251/148 192/250/147 193/252/149
f 311/253/150 193/252/149 194/254/151
f 313/256/153 312/255/152 194/254/151
f 314/258/155 315/271/167 196/259/156
f 314/258/155 197/260/157 198/261/158
f 316/262/159 198/261/158 199/263/160
f 317/264/161 199/263/160 200/265/162
f 304/238/135 318/266/163 200/265/162
f 196/259/156 201/409/171 202/268/165
f 188/244/141 203/408/175 204/269/166
f 315/271/167 313/256/153 206/272/168
f 307/274/170 305/407/138 208/275/171
f 208/277/171 209/424/174 210/278/172
f 206/280/168 211/425/176 212/281/173
f 204/283/166 213/426/173 209/284/174
f 203/286/175 214/427/176 213/287/173
f 207/289/165 210/428/172 214/290/176
f 202/292/165 215/429/172 211/293/176
f 201/295/171 216/430/174 215/296/172
f 205/298/169 212/431/173 216/299/174
f 226/301/177 231/304/180 230/302/178
f 231/304/180 223/432/203 222/305/181
f 221/306/182 224/433/200 232/307/183
f 229/308/184 232/307/183 227/309/185
f 222/305/181 223/432/203 235/311/187
f 234/312/188 235/311/187 225/313/189
f 228/315/191 236/318/194 233/316/192
f 236/318/194 224/433/200 221/306/182
f 214/319/176 215/378/172 216/320/174
f 233/322/192 229/434/184 210/323/172
f 230/325/178 234/435/188 212/326/173
f 225/328/189 241/331/196 240/329/195
f 241/331/196 242/333/196 239/332/195
f 242/333/196 228/436/191 217/334/193
f 244/335/197 237/339/198 218/336/186
f 243/338/197 238/341/198 237/339/198
f 226/340/177 219/437/179 238/341/198
f 237/342/198 247/346/199 229/343/184
f 237/342/198 238/348/198 248/345/199
f 219/347/179 230/438/178 248/345/199
f 224/349/200 246/353/202 250/350/201
f 245/352/202 249/355/201 250/350/201
f 223/354/203 231/358/180 249/355/201
f 250/350/201 244/357/197 227/356/185
f 249/355/201 243/359/197 244/357/197
f 231/358/180 226/439/177 243/359/197
f 251/360/204 239/364/195 217/361/193
f 251/360/204 252/366/204 240/363/195
f 234/365/188 220/440/190 240/363/195
f 242/367/196 254/371/205 236/368/194
f 241/370/196 253/373/205 254/371/205
f 241/370/196 225/441/189 235/372/187
f 254/371/205 246/353/202 224/349/200
f 253/373/205 245/352/202 246/353/202
f 235/372/187 223/354/203 245/352/202
f 212/326/173 234/435/188 252/374/204
f 211/327/176 215/378/172 248/375/199
f 213/321/173 216/320/174 252/374/204
f 209/324/174 213/321/173 251/376/204
f 210/323/172 229/434/184 247/377/199
f 247/377/199 248/375/199 215/378/172
f 160/379/202 161/442/202 162/380/202
f 164/382/202 159/443/202 160/379/202
f 158/383/202 159/443/202 164/382/202
f 166/385/202 157/444/202 158/383/202
f 156/386/202 157/444/202 166/385/202
f 167/388/202 155/445/202 156/386/202
f 154/389/202 155/445/202 167/388/202
f 152/391/63 151/392/64 185/239/136
f 151/392/64 150/446/206 187/242/139
f 150/393/206 149/447/208 188/244/141
f 188/244/141 149/447/208 148/394/207
f 148/394/207 147/395/68 190/246/143
f 147/395/68 146/396/69 191/249/146
f 146/396/69 145/397/70 192/250/147
f 145/397/70 144/398/55 193/252/149
f 144/398/55 143/399/56 194/254/151
f 143/399/56 142/400/57 195/257/154
f 142/400/57 141/401/58 196/259/156
f 141/401/58 140/402/59 197/260/157
f 140/402/59 139/403/60 198/261/158
f 139/403/60 138/404/61 199/263/160
f 138/404/61 137/405/62 200/265/162
f 137/405/62 152/391/63 186/267/164
f 256/173/72 255/204/102 272/206/104
f 257/175/74 256/173/72 271/209/107
f 258/180/78 257/176/74 273/211/109
f 259/179/77 258/180/78 274/214/111
f 260/181/79 259/179/77 275/216/113
f 261/185/83 260/181/79 276/218/115
f 262/188/86 261/185/83 277/220/117
f 263/187/85 262/188/86 278/222/119
f 264/191/89 263/187/85 279/224/121
f 265/194/92 264/191/89 280/226/123
f 266/193/91 265/194/92 281/228/125
f 283/232/129 267/195/93 266/193/91
f 268/200/98 267/195/93 283/232/129
f 269/199/97 268/200/98 284/234/131
f 286/237/134 270/201/99 269/199/97
f 286/237/134 272/206/104 255/204/102
f 287/207/105 304/238/135 303/240/137
f 289/208/106 288/205/103 303/240/137
f 290/210/108 289/212/106 305/407/138
f 306/243/140 291/213/110 290/210/108
f 308/247/144 292/215/112 291/213/110
f 293/217/114 292/215/112 308/247/144
f 310/251/148 294/219/116 293/217/114
f 295/221/118 294/219/116 310/251/148
f 312/255/152 296/223/120 295/221/118
f 297/225/122 296/223/120 312/255/152
f 298/227/124 297/225/122 313/256/153
f 299/229/126 298/227/124 315/271/167
f 300/231/128 299/229/126 314/258/155
f 301/233/130 300/231/128 316/262/159
f 302/235/132 301/233/130 317/264/161
f 318/266/163 304/238/135 287/207/105
f 203/408/175 188/244/141 307/274/170
f 204/269/166 208/275/171 305/407/138
f 202/268/165 206/272/168 313/256/153
f 201/409/171 196/259/156 315/271/167
